<svg width="100%" height="100%" viewBox="0 0 16 14" fill="none" xmlns="http://www.w3.org/2000/svg">
<path d="M11.6401 2.0249H8.01806V0.0249023H15.0181V7.0249H13.0181V3.4749L8.10406 8.3889L6.69006 6.9749L11.6401 2.0249Z" fill="currentColor"/>
<path d="M6.98206 1.9749H0.982056V13.9749H12.9821V7.9749H10.9821V11.9749H2.98206V3.9749H6.98206V1.9749Z" fill="currentColor"/>
</svg>
