{
  "name": "Bombora website",
  "sort": 1,
  "client": "Hub",
  "type": "client",
  "clientLink": "https://www.hubagency.co.uk/",
  "skills": ["WordPress", "PHP", "SCSS", "Bootstrap", "HubSpot"],
  "images": [
    {
      "src": "https://rvs-portfolio.sirv.com/projects/bombora/bombora-1.png",
      "query": { "ch": "500", "w": "500" },
      "alt": "Homepage"
    },
    {
      "src": "https://rvs-portfolio.sirv.com/projects/bombora/bombora-2.png",
      "query": { "ch": "500", "w": "500" },
      "alt": "Service"
    },
    {
      "src": "https://rvs-portfolio.sirv.com/projects/bombora/bombora-3.png",
      "query": { "h": "500", "cw": "500" },
      "alt": "Blog archive"
    },
    {
      "src": "https://rvs-portfolio.sirv.com/projects/bombora/bombora-4.png",
      "query": { "ch": "500", "w": "500" },
      "alt": "Contact"
    }
  ],
  "links": [
    {
      "label": "Visit site",
      "href": "https://www.bombora.tv/"
    }
  ]
}
